{
    "AS_Button_h53c8d8b17194e5db9e51c022a5346f5": {
        "id": "AS_Button_h53c8d8b17194e5db9e51c022a5346f5",
        "type": "ACTION_SEQUENCE",
        "params": [{
            "datatype": "collection",
            "name": "eventobject"
        }],
        "contextObj": {
            "name": "loginpage",
            "type": "forms",
            "platform": "",
            "KUID": "cc4eca383f294cc3b1980017e9354e57"
        },
        "language": "js",
        "actions": [{
            "id": "NAVIGATE_TO_FORM__a5ada78402b54238abb0ba33285a8bcd",
            "type": "NAVIGATE_TO_FORM",
            "formKUID": null,
            "mappings": {},
            "mappingsOrder": [],
            "enableMappingEditor": true,
            "isCustomInput": false
        }, {
            "id": "NAVIGATE_TO_FORM__b641953b33274b1abd85e312886ba8bf",
            "type": "NAVIGATE_TO_FORM",
            "formId": "Dashboard",
            "formKUID": "b7a6ffcef4c44a45a78f8ebb32dcf27a",
            "mappings": {},
            "mappingsOrder": [],
            "enableMappingEditor": true,
            "package": "",
            "isCustomInput": false
        }]
    }
}