{
    "AS_Button_h5058e851a0546b7bf98985f47193f23": {
        "id": "AS_Button_h5058e851a0546b7bf98985f47193f23",
        "type": "ACTION_SEQUENCE",
        "params": [{
            "datatype": "collection",
            "name": "eventobject"
        }],
        "contextObj": {
            "name": "loginpage",
            "type": "forms",
            "platform": "",
            "KUID": "cc4eca383f294cc3b1980017e9354e57"
        },
        "language": "js",
        "actions": [{
            "id": "NAVIGATE_TO_FORM__cb88dbd0c28041cd8b1bad05622f7671",
            "type": "NAVIGATE_TO_FORM",
            "formKUID": "c3dd7027a8b147af935bac5f86a0cd64",
            "mappings": {},
            "mappingsOrder": [],
            "enableMappingEditor": true,
            "package": "",
            "isCustomInput": false
        }]
    }
}