{
    "AS_FlexContainer_dffcedaa48754e98b1a052b2ddf2c146": {
        "id": "AS_FlexContainer_dffcedaa48754e98b1a052b2ddf2c146",
        "type": "ACTION_SEQUENCE",
        "params": [{
            "datatype": "collection",
            "name": "eventobject"
        }],
        "language": "js",
        "actions": [{
            "id": "SET_FORM_WIDGET_PROPERTY___g27ee2dc27844222ab4293aae319f5e0",
            "type": "SET_WIDGET_PROPERTY",
            "itemType": "FORM",
            "itemId": "loginpage",
            "widgetId": "idbutton",
            "propertyName": "isVisible",
            "propertyValue": "false",
            "itemKUID": "cc4eca383f294cc3b1980017e9354e57",
            "widgetKUID": "cab7674242f34122a256ec41b379046a",
            "isSkinProperty": false,
            "wType": "FlexContainer",
            "forkedPlatform": "all",
            "widgetPath": "this.view.idbutton"
        }]
    }
}