{
    "AS_FlexContainer_d03823cce37245eb85ee44b4f5d4eabb": {
        "id": "AS_FlexContainer_d03823cce37245eb85ee44b4f5d4eabb",
        "type": "ACTION_SEQUENCE",
        "params": [{
            "datatype": "collection",
            "name": "eventobject"
        }],
        "contextObj": {
            "name": "loginpage",
            "type": "forms",
            "platform": "",
            "KUID": "cc4eca383f294cc3b1980017e9354e57"
        },
        "language": "js",
        "actions": []
    }
}