{
    "AS_FlexContainer_a92f954a18f647e885c575228f91f712": {
        "id": "AS_FlexContainer_a92f954a18f647e885c575228f91f712",
        "type": "ACTION_SEQUENCE",
        "params": [{
            "datatype": "collection",
            "name": "eventobject"
        }],
        "contextObj": {
            "name": "loginpage",
            "type": "forms",
            "platform": "",
            "KUID": "cc4eca383f294cc3b1980017e9354e57"
        },
        "language": "js",
        "actions": [{
            "id": "SET_FORM_WIDGET_PROPERTY_Untitled__bb1feeb0875545e298195ed6b562cff0",
            "type": "SET_WIDGET_PROPERTY",
            "itemType": "FORM",
            "itemId": "loginpage",
            "widgetId": "Loginto",
            "propertyName": "isVisible",
            "propertyValue": "true",
            "itemKUID": "cc4eca383f294cc3b1980017e9354e57",
            "widgetKUID": "j08c4ffeb4e149ba92cf640607198806",
            "isSkinProperty": false,
            "wType": "FlexContainer",
            "forkedPlatform": "all",
            "parentId": null,
            "widgetPath": "this.view.Loginto"
        }]
    }
}