{
    "AS_FlexContainer_de8604ee2ecb44a3b1b280d5357af509": {
        "id": "AS_FlexContainer_de8604ee2ecb44a3b1b280d5357af509",
        "type": "ACTION_SEQUENCE",
        "params": [{
            "datatype": "collection",
            "name": "eventobject"
        }],
        "contextObj": {
            "name": "loginpage",
            "type": "forms",
            "platform": "",
            "KUID": "cc4eca383f294cc3b1980017e9354e57"
        },
        "language": "js",
        "actions": [{
            "id": "SET_FORM_WIDGET_PROPERTY_Untitled__c5e3b8053ea145acbfd4fc06574dde98",
            "type": "SET_WIDGET_PROPERTY",
            "itemType": "FORM",
            "itemId": "loginpage",
            "widgetId": "FlexContainer0b54c845fe3c443",
            "propertyName": "isVisible",
            "propertyValue": "false",
            "itemKUID": "cc4eca383f294cc3b1980017e9354e57",
            "widgetKUID": "b88d744a94014338a74e2669d402f4ca",
            "isSkinProperty": false,
            "wType": "FlexContainer",
            "forkedPlatform": "all",
            "parentId": null,
            "widgetPath": "this.view.FlexContainer0b54c845fe3c443"
        }, {
            "id": "SET_FORM_WIDGET_PROPERTY_Untitled__b759c2bbdd0547d09ef79734da3bd69b",
            "type": "SET_WIDGET_PROPERTY",
            "itemType": "FORM",
            "itemId": "loginpage",
            "widgetId": "FlexContainer0dd9a869734db42",
            "propertyName": "isVisible",
            "propertyValue": "false",
            "itemKUID": "cc4eca383f294cc3b1980017e9354e57",
            "widgetKUID": "afbaa2c3830b488f9d0636bbd24a8435",
            "isSkinProperty": false,
            "wType": "FlexContainer",
            "forkedPlatform": "all",
            "parentId": null,
            "widgetPath": "this.view.FlexContainer0dd9a869734db42"
        }]
    }
}