{
    "AS_FlexContainer_gace591763ed43e3bb80a905ac5fc584": {
        "id": "AS_FlexContainer_gace591763ed43e3bb80a905ac5fc584",
        "type": "ACTION_SEQUENCE",
        "params": [{
            "datatype": "collection",
            "name": "eventobject"
        }],
        "contextObj": {
            "name": "loginpage",
            "type": "forms",
            "platform": "",
            "KUID": "cc4eca383f294cc3b1980017e9354e57"
        },
        "language": "js",
        "actions": [{
            "id": "SET_FORM_WIDGET_PROPERTY_Untitled__e86f96d56e5f4268af9868a01c66e6fb",
            "type": "SET_WIDGET_PROPERTY",
            "itemType": "FORM",
            "itemId": "loginpage",
            "widgetId": "rightcol",
            "propertyName": "isVisible",
            "propertyValue": "true",
            "itemKUID": "cc4eca383f294cc3b1980017e9354e57",
            "widgetKUID": "hd486a06990547f581f5c6130ccb435f",
            "isSkinProperty": false,
            "wType": "FlexContainer",
            "forkedPlatform": "all",
            "parentId": null,
            "widgetPath": "this.view.rightcol"
        }, {
            "id": "SET_FORM_WIDGET_PROPERTY_Untitled__ebe5bd65314849ceaeb2291ec7ec929a",
            "type": "SET_WIDGET_PROPERTY",
            "itemType": "FORM",
            "itemId": "loginpage",
            "widgetId": "idbutton",
            "propertyName": "isVisible",
            "propertyValue": "false",
            "itemKUID": "cc4eca383f294cc3b1980017e9354e57",
            "widgetKUID": "cab7674242f34122a256ec41b379046a",
            "isSkinProperty": false,
            "wType": "FlexContainer",
            "forkedPlatform": "all",
            "parentId": null,
            "widgetPath": "this.view.idbutton"
        }]
    }
}