{
    "AS_FlexContainer_de09f69773d54d13b4edb5989201f82b": {
        "id": "AS_FlexContainer_de09f69773d54d13b4edb5989201f82b",
        "type": "ACTION_SEQUENCE",
        "params": [{
            "datatype": "collection",
            "name": "eventobject"
        }],
        "contextObj": {
            "name": "loginpage",
            "type": "forms",
            "platform": "",
            "KUID": "cc4eca383f294cc3b1980017e9354e57"
        },
        "language": "js",
        "actions": [{
            "id": "SET_FORM_WIDGET_PROPERTY_Untitled__a783206fbd7f4822847f861fa23ec625",
            "type": "SET_WIDGET_PROPERTY",
            "itemType": "FORM",
            "itemId": "loginpage",
            "widgetId": "rightcol",
            "propertyName": "isVisible",
            "propertyValue": "true",
            "itemKUID": "cc4eca383f294cc3b1980017e9354e57",
            "widgetKUID": "hd486a06990547f581f5c6130ccb435f",
            "isSkinProperty": false,
            "wType": "FlexContainer",
            "forkedPlatform": "all",
            "parentId": null,
            "widgetPath": "this.view.rightcol"
        }, {
            "id": "SET_FORM_WIDGET_PROPERTY_Untitled__f8a4eee0c5ec4a1da514bf7a87dbd503",
            "type": "SET_WIDGET_PROPERTY",
            "itemType": "FORM",
            "itemId": "loginpage",
            "widgetId": "idbutton",
            "propertyName": "isVisible",
            "propertyValue": "false",
            "itemKUID": "cc4eca383f294cc3b1980017e9354e57",
            "widgetKUID": "cab7674242f34122a256ec41b379046a",
            "isSkinProperty": false,
            "wType": "FlexContainer",
            "forkedPlatform": "all",
            "parentId": null,
            "widgetPath": "this.view.idbutton"
        }]
    }
}