{
    "AS_FlexContainer_dbd0ff45cedb4555b87e76b8c2f90781": {
        "id": "AS_FlexContainer_dbd0ff45cedb4555b87e76b8c2f90781",
        "type": "ACTION_SEQUENCE",
        "params": [{
            "datatype": "collection",
            "name": "eventobject"
        }],
        "contextObj": {
            "name": "loginpage",
            "type": "forms",
            "platform": "",
            "KUID": "cc4eca383f294cc3b1980017e9354e57"
        },
        "language": "js",
        "actions": [{
            "id": "SET_FORM_WIDGET_PROPERTY_Untitled__e93dba41bd7e49efb4ab4f8304900437",
            "type": "SET_WIDGET_PROPERTY",
            "itemType": "FORM",
            "itemId": "loginpage",
            "widgetId": "rightcol",
            "propertyName": "isVisible",
            "propertyValue": "true",
            "itemKUID": "cc4eca383f294cc3b1980017e9354e57",
            "widgetKUID": "hd486a06990547f581f5c6130ccb435f",
            "isSkinProperty": false,
            "wType": "FlexContainer",
            "forkedPlatform": "all",
            "parentId": null,
            "widgetPath": "this.view.rightcol"
        }, {
            "id": "STRING_ACTION_d1f281aa306b4fe4be3044476631c237",
            "type": "STRING_ACTION",
            "parentId": null,
            "string1Type": "set",
            "string1Value": "",
            "string2Type": "set",
            "string2Value": "",
            "string3Type": "set",
            "string3Value": "",
            "delimiterType": "set",
            "delimiterValue": "",
            "opType": "Combine"
        }, {
            "id": "SET_FORM_WIDGET_PROPERTY_Untitled__fb5ec6d33466400796dbaa1ec499bef3",
            "type": "SET_WIDGET_PROPERTY",
            "itemType": "FORM",
            "itemId": "loginpage",
            "widgetId": "idbutton",
            "propertyName": "isVisible",
            "propertyValue": "false",
            "itemKUID": "cc4eca383f294cc3b1980017e9354e57",
            "widgetKUID": "cab7674242f34122a256ec41b379046a",
            "isSkinProperty": false,
            "wType": "FlexContainer",
            "forkedPlatform": "all",
            "parentId": null,
            "widgetPath": "this.view.idbutton"
        }]
    }
}