{
    "DNDConfig": null,
    "_height_": {
        "type": "string",
        "value": "17%"
    },
    "_left_": {
        "type": "string",
        "value": "0"
    },
    "_margin_": [
        0,
        0,
        0,
        0
    ],
    "_orientation_": 6,
    "_padding_": [
        0,
        0,
        0,
        0
    ],
    "_percent_": true,
    "_skin_": "sfc23a2edeb74a56aaa9eaacfe325609",
    "_top_": {
        "type": "string",
        "value": "0"
    },
    "_width_": {
        "type": "string",
        "value": "100%"
    },
    "allboxes": [],
    "autogrowmode": 0,
    "canUpdateUI": true,
    "children": [
        "CopyFlexContainer0e219afd9e64141",
        "CopyLabel0bec842078f3141",
        "CopyLabel0g2846dd92c9c4c",
        "CopyLabel0j192811b760b48"
    ],
    "clipbounds": true,
    "containerweight": 100,
    "enablescrolling": true,
    "id": "CopyFlexContainer0gae4382adb4f4e",
    "info": null,
    "iscustomlayout": false,
    "isvisible": true,
    "kuid": "f5299462b2cd4643a923f9d983e3a377",
    "layouttype": 2,
    "name": "kony.ui.FlexContainer",
    "parent": "CopyFlexContainer0ie5c406d9a664d",
    "pf": "Dashboard",
    "retaincontentalignment": false,
    "retainflexpositionproperties": false,
    "retainflowhorizontalalignment": false,
    "snapgridsize": 10,
    "snaptogrid": true,
    "wType": "FlexContainer",
    "widgetalignment": 1
}