{
    "DNDConfig": null,
    "_height_": {
        "type": "string",
        "value": "90%"
    },
    "_left_": {
        "type": "string",
        "value": "2%"
    },
    "_margin_": [
        0,
        0,
        0,
        0
    ],
    "_orientation_": 6,
    "_padding_": [
        0,
        0,
        0,
        0
    ],
    "_percent_": true,
    "_skin_": "s1f33c31ed314bedaa1ef9d7088c0e17",
    "_top_": {
        "type": "string",
        "value": "0"
    },
    "_width_": {
        "type": "string",
        "value": "25%"
    },
    "allboxes": [],
    "autogrowmode": 0,
    "canUpdateUI": true,
    "centery": {
        "type": "string",
        "value": "50%"
    },
    "children": [
        "CopyFlexContainer0caa97ed7c77140",
        "CopyFlexContainer0e93bdfbfe9a345"
    ],
    "clipbounds": true,
    "containerweight": 100,
    "enablescrolling": true,
    "id": "CopyFlexContainer0eac2f338f2e94e",
    "info": null,
    "iscustomlayout": false,
    "isvisible": true,
    "kuid": "e08e863fabb6494398906748cff3c8d1",
    "layouttype": 2,
    "name": "kony.ui.FlexContainer",
    "parent": "FlexScrollContainer0c29e8095586a44",
    "pf": "Dashboard",
    "responsiveData": {
        "b3": {
            "width": {
                "type": "string",
                "value": "30%"
            }
        }
    },
    "retaincontentalignment": false,
    "retainflexpositionproperties": false,
    "retainflowhorizontalalignment": false,
    "snapgridsize": 10,
    "snaptogrid": true,
    "wType": "FlexContainer",
    "widgetalignment": 1
}