{
    "DNDConfig": null,
    "_height_": {
        "type": "string",
        "value": "100%"
    },
    "_left_": {
        "type": "string",
        "value": "2%"
    },
    "_margin_": [
        0,
        0,
        0,
        0
    ],
    "_orientation_": 6,
    "_padding_": [
        0,
        0,
        0,
        0
    ],
    "_percent_": true,
    "_skin_": "sae12611c98241b4a76c5c227409387d",
    "_top_": {
        "type": "string",
        "value": "0"
    },
    "_width_": {
        "type": "string",
        "value": "22%"
    },
    "allboxes": [],
    "autogrowmode": 0,
    "canUpdateUI": true,
    "children": [
        "CopyFlexContainer0e4105617e21540",
        "CopyFlexContainer0jbfa4ac8265d4a",
        "CopyLabel0cf96b8cab8244e"
    ],
    "clipbounds": true,
    "containerweight": 100,
    "enablescrolling": true,
    "id": "CopyFlexContainer0h5e024d0a9d24d",
    "info": null,
    "iscustomlayout": false,
    "isvisible": true,
    "kuid": "ba19fb581fcd4a829d5c4ae4a7e4d10d",
    "layouttype": 2,
    "name": "kony.ui.FlexContainer",
    "parent": "FlexScrollContainer0ic40891bce9542",
    "pf": "Dashboard",
    "retaincontentalignment": false,
    "retainflexpositionproperties": false,
    "retainflowhorizontalalignment": false,
    "snapgridsize": 10,
    "snaptogrid": true,
    "wType": "FlexContainer",
    "widgetalignment": 1
}