{
    "DNDConfig": null,
    "_height_": {
        "type": "string",
        "value": "35%"
    },
    "_left_": {
        "type": "string",
        "value": "0"
    },
    "_margin_": [
        0,
        0,
        0,
        0
    ],
    "_orientation_": 6,
    "_padding_": [
        0,
        0,
        0,
        0
    ],
    "_percent_": true,
    "_skin_": "s8ec60bc9ccf42679cb7eeccd26bb139",
    "_top_": {
        "type": "string",
        "value": "65%"
    },
    "_width_": {
        "type": "string",
        "value": "100%"
    },
    "allboxes": [],
    "autogrowmode": 0,
    "canUpdateUI": true,
    "children": [
        "CopyLabel0d80c11ad26f14b",
        "CopyLabel0ccd8e13c6efb4b",
        "CopyButton0fef16789a85f46",
        "CopyImage0f150100b8d5c4b"
    ],
    "clipbounds": true,
    "containerweight": 100,
    "enablescrolling": true,
    "id": "CopyFlexContainer0d4c340b92c0443",
    "info": null,
    "iscustomlayout": false,
    "isvisible": true,
    "kuid": "a49e6ead85c84a279c7503b3c1f60397",
    "layouttype": 4,
    "name": "kony.ui.FlexContainer",
    "parent": "CopyFlexContainer0h67a6128baab4b",
    "pf": "Dashboard",
    "retaincontentalignment": false,
    "retainflexpositionproperties": false,
    "retainflowhorizontalalignment": false,
    "snapgridsize": 10,
    "snaptogrid": true,
    "wType": "FlexContainer",
    "widgetalignment": 1
}