{
    "@class": "com.kony.gen.viz.model.component.KVizButton",
    "DNDConfig": null,
    "_height_": {
        "type": "string",
        "value": "40dp"
    },
    "_left_": {
        "type": "string",
        "value": "0"
    },
    "_margin_": [
        6,
        6,
        6,
        6
    ],
    "_padding_": [
        0,
        0,
        0,
        0
    ],
    "_skin_": "s5c6e0cc249a4946b58a1320b025f21a",
    "_text_": "Add Friend",
    "_top_": {
        "type": "string",
        "value": "10dp"
    },
    "_width_": {
        "type": "string",
        "value": "90%"
    },
    "canUpdateUI": true,
    "centerx": {
        "type": "string",
        "value": "50%"
    },
    "containerweight": 100,
    "contentalignment": 5,
    "displaytext": true,
    "focusskin": "s210abbf55c54342873ff2be387f23a2",
    "id": "CopyButton0d429de45e77340",
    "info": null,
    "iscustomlayout": false,
    "isvisible": true,
    "kuid": "e9c98610506042298098f99b6c576f34",
    "name": "kony.ui.Button",
    "parent": "CopyFlexContainer0e93bdfbfe9a345",
    "pf": "Dashboard",
    "retaincontentalignment": false,
    "retainflexpositionproperties": false,
    "wType": "Button"
}