{
    "DNDConfig": null,
    "_height_": {
        "type": "string",
        "value": "60dp"
    },
    "_left_": {
        "type": "string",
        "value": "0"
    },
    "_margin_": [
        0,
        0,
        0,
        0
    ],
    "_orientation_": 6,
    "_padding_": [
        0,
        0,
        0,
        0
    ],
    "_percent_": true,
    "_skin_": "s8ec60bc9ccf42679cb7eeccd26bb139",
    "_top_": {
        "type": "string",
        "value": "0"
    },
    "_width_": {
        "type": "string",
        "value": "100%"
    },
    "allboxes": [],
    "autogrowmode": 0,
    "canUpdateUI": true,
    "children": [
        "CopyFlexGroup0ha7b788a8edc40",
        "CopyLabel0jc6fe72cc9a247"
    ],
    "clipbounds": true,
    "containerweight": 100,
    "desktopweb": {
        "psp": {
            "hoverSkin": "s959361e38c94d4aa205ccc43ad2c78a"
        }
    },
    "disabledSkins": {},
    "enablescrolling": true,
    "id": "CopyFlexContainer0df3a47b6c2284d",
    "info": null,
    "iscustomlayout": false,
    "isvisible": true,
    "kuid": "bee1bf8b58f847b494ee1b606a0c5574",
    "layouttype": 2,
    "name": "kony.ui.FlexContainer",
    "parent": "leftbar",
    "pf": "Dashboard",
    "retaincontentalignment": false,
    "retainflexpositionproperties": false,
    "retainflowhorizontalalignment": false,
    "snapgridsize": 10,
    "snaptogrid": true,
    "wType": "FlexContainer",
    "widgetalignment": 1
}