{
    "DNDConfig": null,
    "_height_": {
        "type": "string",
        "value": "100%"
    },
    "_left_": {
        "type": "string",
        "value": "0"
    },
    "_margin_": [
        0,
        0,
        0,
        0
    ],
    "_orientation_": 6,
    "_padding_": [
        0,
        0,
        0,
        0
    ],
    "_percent_": true,
    "_skin_": "sae12611c98241b4a76c5c227409387d",
    "_top_": {
        "type": "string",
        "value": "0"
    },
    "_width_": {
        "type": "string",
        "value": "22%"
    },
    "allboxes": [],
    "autogrowmode": 0,
    "canUpdateUI": true,
    "children": [
        "FlexContainer0h0f86dad966643",
        "FlexContainer0j25a1c1837574c",
        "FlexContainer0fc2f0282feb449"
    ],
    "clipbounds": true,
    "containerweight": 100,
    "enablescrolling": true,
    "id": "FlexContainer0df3b738fa7fa48",
    "info": null,
    "iscustomlayout": false,
    "isvisible": true,
    "kuid": "h959f2420f6d4caebe29c1c4db847646",
    "layouttype": 2,
    "name": "kony.ui.FlexContainer",
    "parent": "FlexScrollContainer0ic40891bce9542",
    "pf": "Dashboard",
    "responsiveData": {
        "b2": {}
    },
    "retaincontentalignment": false,
    "retainflexpositionproperties": false,
    "retainflowhorizontalalignment": false,
    "snapgridsize": 10,
    "snaptogrid": true,
    "wType": "FlexContainer",
    "widgetalignment": 1
}