{
    "DNDConfig": null,
    "_height_": {
        "type": "string",
        "value": "40px"
    },
    "_left_": {
        "type": "string",
        "value": "2%"
    },
    "_margin_": [
        0,
        0,
        0,
        0
    ],
    "_orientation_": 6,
    "_padding_": [
        0,
        0,
        0,
        0
    ],
    "_percent_": true,
    "_skin_": "seaaf01c03e04ce39d38b4205cccb1f9",
    "_top_": {
        "type": "string",
        "value": "22%"
    },
    "_width_": {
        "type": "string",
        "value": "40px"
    },
    "allboxes": [],
    "autogrowmode": 0,
    "canUpdateUI": true,
    "children": [
        "Image0g22b7ea6ed1b46"
    ],
    "clipbounds": true,
    "containerweight": 100,
    "enablescrolling": true,
    "id": "FlexGroup0f6add11c756a4a",
    "info": null,
    "iscustomlayout": false,
    "isvisible": true,
    "kuid": "b4af83fbc67649a8bdf74a8b7331efe7",
    "layouttype": 2,
    "name": "kony.ui.FlexContainer",
    "parent": "contactbtn",
    "pf": "Dashboard",
    "retaincontentalignment": false,
    "retainflexpositionproperties": false,
    "retainflowhorizontalalignment": false,
    "snapgridsize": 10,
    "snaptogrid": true,
    "wType": "FlexContainer",
    "widgetalignment": 1
}