{
    "DNDConfig": null,
    "_height_": {
        "type": "string",
        "value": "50px"
    },
    "_left_": {
        "type": "string",
        "value": "0"
    },
    "_margin_": [
        0,
        0,
        0,
        0
    ],
    "_orientation_": 6,
    "_padding_": [
        0,
        0,
        0,
        0
    ],
    "_percent_": true,
    "_skin_": "s9297b382db4471ab8ee65cf197c339a",
    "_top_": {
        "type": "string",
        "value": "59%"
    },
    "_width_": {
        "type": "string",
        "value": "50px"
    },
    "allboxes": [],
    "canUpdateUI": true,
    "centerx": {
        "type": "string",
        "value": "50%"
    },
    "children": [
        "Image0hd34e0735b4846"
    ],
    "clipbounds": true,
    "containerweight": 100,
    "enablescrolling": true,
    "id": "FlexContainer0fc2f0282feb449",
    "info": null,
    "iscustomlayout": false,
    "isvisible": true,
    "kuid": "b7c5d7bbe71a4f83af6fee6c80e57a5a",
    "layouttype": 2,
    "name": "kony.ui.FlexContainer",
    "parent": "FlexContainer0df3b738fa7fa48",
    "pf": "Dashboard",
    "responsiveData": {
        "b1": {
            "skin": "sd2ac0748f45464387c18ed15a4ddd13"
        },
        "b2": {
            "centerX": {
                "type": "string",
                "value": "48%"
            },
            "skin": "s4339115d2bc4c9fa94edc1399a6be71"
        },
        "b3": {
            "skin": "s6bd6ca8616c45f3975aefc4a9d1836f"
        }
    },
    "retaincontentalignment": false,
    "retainflexpositionproperties": false,
    "retainflowhorizontalalignment": false,
    "snapgridsize": 10,
    "snaptogrid": true,
    "wType": "FlexContainer",
    "widgetalignment": 1
}