{
    "DNDConfig": null,
    "_height_": {
        "type": "string",
        "value": "100%"
    },
    "_left_": {
        "type": "string",
        "value": "0"
    },
    "_margin_": [
        0,
        0,
        0,
        0
    ],
    "_orientation_": 6,
    "_padding_": [
        0,
        0,
        0,
        0
    ],
    "_percent_": true,
    "_skin_": "s8ec60bc9ccf42679cb7eeccd26bb139",
    "_top_": {
        "type": "string",
        "value": "0"
    },
    "_width_": {
        "type": "string",
        "value": "30%"
    },
    "allboxes": [],
    "autogrowmode": 0,
    "canUpdateUI": true,
    "children": [
        "Image0faa3f58e2b274b",
        "Label0ccbf72acf4a14b"
    ],
    "clipbounds": true,
    "containerweight": 100,
    "desktopweb": {
        "psp": {
            "hoverSkin": "s5e0c2f3930e46f9a6b9f33b46c8e0d1"
        }
    },
    "disabledSkins": {},
    "enablescrolling": true,
    "id": "FlexContainer0g9249d7aa88b45",
    "info": null,
    "iscustomlayout": false,
    "isvisible": true,
    "kuid": "b9528f1275ab40388d7357994ff1acd4",
    "layouttype": 3,
    "name": "kony.ui.FlexContainer",
    "parent": "FlexContainer0j012843f9cf940",
    "pf": "Dashboard",
    "retaincontentalignment": false,
    "retainflexpositionproperties": false,
    "retainflowhorizontalalignment": false,
    "snapgridsize": 10,
    "snaptogrid": true,
    "wType": "FlexContainer",
    "widgetalignment": 1
}