{
    "DNDConfig": null,
    "_height_": {
        "type": "string",
        "value": "100%"
    },
    "_left_": {
        "type": "string",
        "value": "0"
    },
    "_margin_": [
        0,
        0,
        0,
        0
    ],
    "_orientation_": 6,
    "_padding_": [
        0,
        0,
        0,
        0
    ],
    "_percent_": true,
    "_skin_": "s8ec60bc9ccf42679cb7eeccd26bb139",
    "_top_": {
        "type": "string",
        "value": "0"
    },
    "_width_": {
        "type": "string",
        "value": "100%"
    },
    "allboxes": [],
    "autogrowmode": 0,
    "canUpdateUI": true,
    "children": [
        "Image0d64e24e704dd46"
    ],
    "clipbounds": true,
    "containerweight": 100,
    "enablescrolling": true,
    "id": "home",
    "info": null,
    "iscustomlayout": false,
    "isvisible": true,
    "kuid": "ae5829e401dd4d6a9d9dd94d3f7047f5",
    "layouttype": 2,
    "name": "kony.ui.FlexContainer",
    "parent": "mediabutton",
    "pf": "Dashboard",
    "responsiveconfig": {
        "offset": {
            "b1": 0,
            "b2": 0,
            "b3": 0
        },
        "span": {
            "b1": 2,
            "b2": 2,
            "b3": 2
        }
    },
    "retaincontentalignment": false,
    "retainflexpositionproperties": false,
    "retainflowhorizontalalignment": false,
    "snapgridsize": 10,
    "snaptogrid": true,
    "wType": "FlexContainer",
    "widgetalignment": 1
}