{
    "@class": "com.kony.gen.viz.model.component.KVizImage2",
    "DNDConfig": null,
    "_base64_": null,
    "_height_": {
        "type": "string",
        "value": "80%"
    },
    "_left_": {
        "type": "string",
        "value": "0"
    },
    "_margin_": [
        0,
        0,
        0,
        0
    ],
    "_padding_": [
        0,
        0,
        0,
        0
    ],
    "_skin_": "sed61c8525f4458099e551c3e3ad0101",
    "_src_": "frame__20_.png",
    "_top_": {
        "type": "string",
        "value": "10%"
    },
    "_width_": {
        "type": "string",
        "value": "20%"
    },
    "canUpdateUI": true,
    "containerweight": 100,
    "id": "Image0f3f2dcf2ffb043",
    "imagescalemode": 1,
    "info": null,
    "iscustomlayout": false,
    "isvisible": true,
    "kuid": "a7c87182febe43e7a4a551a208cfbed3",
    "name": "kony.ui.Image2",
    "parent": "FlexContainer0f812f6dfb6244f",
    "pf": "Dashboard",
    "responsiveData": {
        "b1": {
            "height": {
                "type": "string",
                "value": "60%"
            },
            "top": {
                "type": "string",
                "value": "20%"
            }
        },
        "b2": {
            "height": {
                "type": "string",
                "value": "60%"
            },
            "top": {
                "type": "string",
                "value": "20%"
            }
        }
    },
    "retaincontentalignment": false,
    "retainflexpositionproperties": false,
    "srcType": 1,
    "wType": "Image",
    "widgetalignment": 5
}