{
    "@class": "com.kony.gen.viz.model.component.KVizButton",
    "DNDConfig": null,
    "_height_": {
        "type": "string",
        "value": "60dp"
    },
    "_left_": {
        "type": "string",
        "value": "5%"
    },
    "_margin_": [
        6,
        6,
        6,
        6
    ],
    "_padding_": [
        0,
        0,
        0,
        0
    ],
    "_skin_": "s8c6939eeb9e4aafa2562279370a52ed",
    "_text_": "Log in",
    "_top_": {
        "type": "string",
        "value": "70%"
    },
    "_width_": {
        "type": "string",
        "value": "90%"
    },
    "canUpdateUI": true,
    "containerweight": 100,
    "contentalignment": 5,
    "displaytext": true,
    "focusskin": "s210abbf55c54342873ff2be387f23a2",
    "id": "Button0i247afca0a744f",
    "info": null,
    "iscustomlayout": false,
    "isvisible": true,
    "kuid": "g24138754f214a9da313b958c86b8172",
    "name": "kony.ui.Button",
    "parent": "takepassword",
    "pf": "loginpage",
    "retaincontentalignment": false,
    "retainflexpositionproperties": false,
    "wType": "Button",
    "zindex": 1
}