{
    "DNDConfig": null,
    "_height_": {
        "type": "string",
        "value": "25dp"
    },
    "_left_": {
        "type": "string",
        "value": "92%"
    },
    "_margin_": [
        0,
        0,
        0,
        0
    ],
    "_orientation_": 6,
    "_padding_": [
        0,
        0,
        0,
        0
    ],
    "_percent_": true,
    "_skin_": "sceab4d97deb48a08776ace5c7271c37",
    "_top_": {
        "type": "string",
        "value": "2%"
    },
    "_width_": {
        "type": "string",
        "value": "25dp"
    },
    "allboxes": [],
    "autogrowmode": 0,
    "canUpdateUI": true,
    "children": [
        "CopyImage0b23eb4d15edd4e"
    ],
    "clipbounds": true,
    "containerweight": 100,
    "enablescrolling": true,
    "id": "Copyclosebutton0f81113a2a9f443",
    "ide_onClick": "AS_FlexContainer_c1e57e41a4ba44ab947134b1464c525c",
    "info": null,
    "iscustomlayout": false,
    "isvisible": true,
    "kuid": "de058d639a8c4b56861edf9ef0cafefb",
    "layouttype": 2,
    "name": "kony.ui.FlexContainer",
    "parent": "takepassword",
    "pf": "loginpage",
    "retaincontentalignment": false,
    "retainflexpositionproperties": false,
    "retainflowhorizontalalignment": false,
    "snapgridsize": 10,
    "snaptogrid": true,
    "wType": "FlexContainer",
    "widgetalignment": 1,
    "zindex": 100
}