{
    "DNDConfig": null,
    "_height_": {
        "type": "string",
        "value": "230dp"
    },
    "_left_": {
        "type": "string",
        "value": "0"
    },
    "_margin_": [
        0,
        0,
        0,
        0
    ],
    "_orientation_": 6,
    "_padding_": [
        0,
        0,
        0,
        0
    ],
    "_percent_": true,
    "_skin_": "s8ec60bc9ccf42679cb7eeccd26bb139",
    "_top_": {
        "type": "string",
        "value": "0"
    },
    "_width_": {
        "type": "string",
        "value": "100%"
    },
    "allboxes": [],
    "canUpdateUI": true,
    "children": [
        "Image0edb0dc3fe0cb41",
        "FlexContainer0i97a1a13eb2345",
        "FlexContainer0ie216d0af66f4c",
        "FlexContainer0ad4acc2bfe8f45"
    ],
    "clipbounds": true,
    "containerweight": 100,
    "enablescrolling": true,
    "id": "FlexContainer0b54c845fe3c443",
    "ide_onClick": "AS_FlexContainer_c4409acc56cf41668b63bcc515bc8861",
    "info": null,
    "iscustomlayout": false,
    "isvisible": true,
    "kuid": "b88d744a94014338a74e2669d402f4ca",
    "layouttype": 2,
    "name": "kony.ui.FlexContainer",
    "parent": "idbutton",
    "pf": "loginpage",
    "responsiveData": {
        "b1": {
            "height": {
                "type": "string",
                "value": "210dp"
            },
            "skin": "s7c329b829444540b853052160676864"
        },
        "b2": {
            "height": {
                "type": "string",
                "value": "100%"
            },
            "skin": "sbdb59f46efe40c1b7c2a2ce8ea2a12e"
        },
        "b3": {
            "layoutType": 4
        }
    },
    "responsiveconfig": {
        "offset": {
            "b1": 0,
            "b2": 0,
            "b3": 0
        },
        "span": {
            "b1": 4,
            "b2": 5,
            "b3": 12
        }
    },
    "retaincontentalignment": false,
    "retainflexpositionproperties": false,
    "retainflowhorizontalalignment": false,
    "snapgridsize": 10,
    "snaptogrid": true,
    "wType": "FlexContainer",
    "widgetalignment": 1
}