{
    "DNDConfig": null,
    "_height_": {
        "type": "string",
        "value": "220dp"
    },
    "_left_": {
        "type": "string",
        "value": "0"
    },
    "_margin_": [
        0,
        0,
        0,
        0
    ],
    "_orientation_": 6,
    "_padding_": [
        0,
        0,
        0,
        0
    ],
    "_percent_": true,
    "_skin_": "s3a5de073f1b442b967ce6a48ae88a7b",
    "_top_": {
        "type": "string",
        "value": "0"
    },
    "_width_": {
        "type": "string",
        "value": "100%"
    },
    "allboxes": [],
    "canUpdateUI": true,
    "centerx": {
        "type": "number",
        "value": ""
    },
    "children": [
        "Label0c4c5b2434b5d4b"
    ],
    "clipbounds": true,
    "containerweight": 100,
    "enablescrolling": true,
    "id": "FlexContainer0h47f36908fb448",
    "info": null,
    "iscustomlayout": false,
    "isvisible": true,
    "kuid": "g3f04621239c4e3abdc96a06fe9d13b8",
    "layouttype": 2,
    "name": "kony.ui.FlexContainer",
    "parent": "FlexContainer0acf1d8a815d247",
    "pf": "loginpage",
    "responsiveData": {
        "b1": {
            "height": {
                "type": "string",
                "value": "40dp"
            },
            "top": {
                "type": "string",
                "value": "80%"
            }
        },
        "b2": {
            "height": {
                "type": "string",
                "value": "20%"
            },
            "top": {
                "type": "string",
                "value": "80%"
            }
        },
        "b3": {
            "centerX": {
                "type": "string",
                "value": "50%"
            },
            "height": {
                "type": "string",
                "value": "20%"
            },
            "skin": "s21195a7b1d2494485e865fd2d623a8d",
            "width": {
                "type": "string",
                "value": "200px"
            }
        }
    },
    "retaincontentalignment": false,
    "retainflexpositionproperties": false,
    "retainflowhorizontalalignment": false,
    "snapgridsize": 10,
    "snaptogrid": true,
    "wType": "FlexContainer",
    "widgetalignment": 1
}