{
    "DNDConfig": null,
    "_height_": {
        "type": "string",
        "value": "20%"
    },
    "_left_": {
        "type": "string",
        "value": "0"
    },
    "_margin_": [
        0,
        0,
        0,
        0
    ],
    "_orientation_": 6,
    "_padding_": [
        0,
        0,
        0,
        0
    ],
    "_percent_": true,
    "_skin_": "s9bb94a848ae46aeb8290a62ab3eb3b0",
    "_top_": {
        "type": "string",
        "value": "7dp"
    },
    "_width_": {
        "type": "string",
        "value": "100%"
    },
    "allboxes": [],
    "canUpdateUI": true,
    "children": [
        "RichText0e8a17a672b9549",
        "RichText0bebde516241d41",
        "RichText0i0ecb5e53f2241",
        "RichText0a414d2b1800948"
    ],
    "clipbounds": true,
    "containerweight": 100,
    "enablescrolling": true,
    "id": "FlexContainer0i2c98ee99aa14c",
    "info": null,
    "iscustomlayout": false,
    "isvisible": true,
    "kuid": "f2c7c2435e07410d91ee1f3ce33806ac",
    "layouttype": 4,
    "name": "kony.ui.FlexContainer",
    "parent": "mainwrapper",
    "pf": "loginpage",
    "responsiveData": {
        "b1": {
            "top": {
                "type": "string",
                "value": "22dp"
            }
        },
        "b2": {
            "height": {
                "type": "ref",
                "value": "preferred"
            },
            "top": {
                "type": "string",
                "value": "33dp"
            }
        },
        "b3": {
            "height": {
                "type": "ref",
                "value": "preferred"
            }
        }
    },
    "responsiveconfig": {
        "offset": {
            "b1": 0,
            "b2": 0,
            "b3": 0
        },
        "span": {
            "b1": 12,
            "b2": 12,
            "b3": 12
        }
    },
    "retaincontentalignment": false,
    "retainflexpositionproperties": false,
    "retainflowhorizontalalignment": false,
    "snapgridsize": 10,
    "snaptogrid": true,
    "wType": "FlexContainer",
    "widgetalignment": 1
}