{
    "DNDConfig": null,
    "_height_": {
        "type": "string",
        "value": "220dp"
    },
    "_left_": {
        "type": "string",
        "value": "0"
    },
    "_margin_": [
        0,
        0,
        0,
        0
    ],
    "_orientation_": 6,
    "_padding_": [
        0,
        0,
        0,
        0
    ],
    "_percent_": true,
    "_skin_": "s862fc3858814b61afdfcc4f1ea74674",
    "_top_": {
        "type": "string",
        "value": "0"
    },
    "_width_": {
        "type": "string",
        "value": "100%"
    },
    "allboxes": [],
    "canUpdateUI": true,
    "centerx": {
        "type": "number",
        "value": ""
    },
    "children": [
        "Image0b4f21b5d629b48"
    ],
    "clipbounds": true,
    "containerweight": 100,
    "enablescrolling": true,
    "id": "FlexContainer0h8cd73e274b546",
    "ide_onClick": "AS_FlexContainer_de09f69773d54d13b4edb5989201f82b",
    "info": null,
    "iscustomlayout": false,
    "isvisible": true,
    "kuid": "g1bc48d5e7e145c49ac7f7af4d2af6c2",
    "layouttype": 2,
    "name": "kony.ui.FlexContainer",
    "parent": "FlexContainer0acf1d8a815d247",
    "pf": "loginpage",
    "responsiveData": {
        "b1": {
            "height": {
                "type": "string",
                "value": "170dp"
            }
        },
        "b2": {
            "height": {
                "type": "string",
                "value": "80%"
            }
        },
        "b3": {
            "centerX": {
                "type": "string",
                "value": "50%"
            },
            "height": {
                "type": "string",
                "value": "80%"
            },
            "width": {
                "type": "string",
                "value": "200px"
            }
        }
    },
    "retaincontentalignment": false,
    "retainflexpositionproperties": false,
    "retainflowhorizontalalignment": false,
    "snapgridsize": 10,
    "snaptogrid": true,
    "wType": "FlexContainer",
    "widgetalignment": 1
}