{
    "DNDConfig": null,
    "_height_": {
        "type": "string",
        "value": "230dp"
    },
    "_left_": {
        "type": "string",
        "value": "10%"
    },
    "_margin_": [
        0,
        0,
        0,
        0
    ],
    "_orientation_": 6,
    "_padding_": [
        0,
        0,
        0,
        0
    ],
    "_percent_": true,
    "_skin_": "s67740ed2b8d4a7ea83c3a60e5a83f55",
    "_top_": {
        "type": "string",
        "value": "40dp"
    },
    "_width_": {
        "type": "string",
        "value": "80%"
    },
    "allboxes": [],
    "canUpdateUI": true,
    "centerx": {
        "type": "number",
        "value": ""
    },
    "children": [
        "FlexContainer0b54c845fe3c443",
        "FlexContainer0dd9a869734db42",
        "FlexContainer0acf1d8a815d247"
    ],
    "clipbounds": true,
    "containerweight": 100,
    "desktopweb": {
        "render": true
    },
    "enablescrolling": true,
    "id": "idbutton",
    "info": null,
    "iscustomlayout": false,
    "isvisible": true,
    "kiosk": {
        "render": false
    },
    "kuid": "cab7674242f34122a256ec41b379046a",
    "layouttype": 5,
    "name": "kony.ui.FlexContainer",
    "parent": "leftcol",
    "pf": "loginpage",
    "responsiveData": {
        "b1": {},
        "b2": {
            "centerX": {
                "type": "string",
                "value": "50%"
            },
            "height": {
                "type": "string",
                "value": "240dp"
            },
            "left": {
                "type": "number",
                "value": "0"
            },
            "width": {
                "type": "string",
                "value": "80%"
            }
        },
        "b3": {
            "centerX": {
                "type": "string",
                "value": "50%"
            },
            "height": {
                "type": "string",
                "value": "500dp"
            },
            "isVisible": true,
            "left": {
                "type": "string",
                "value": "10%"
            },
            "width": {
                "type": "string",
                "value": "100%"
            }
        }
    },
    "retaincontentalignment": false,
    "retainflexpositionproperties": false,
    "retainflowhorizontalalignment": false,
    "snapgridsize": 10,
    "snaptogrid": true,
    "wType": "FlexContainer",
    "widgetalignment": 1
}