{
    "@class": "com.kony.gen.viz.model.component.KVizLabel",
    "DNDConfig": null,
    "_height_": {
        "type": "ref",
        "value": "preferred"
    },
    "_left_": {
        "type": "string",
        "value": "0"
    },
    "_margin_": [
        1,
        1,
        1,
        1
    ],
    "_padding_": [
        0,
        0,
        0,
        0
    ],
    "_skin_": "s8e63ae55d1445eab8eed5030fb0877f",
    "_text_": "Label",
    "_top_": {
        "type": "string",
        "value": "0"
    },
    "_width_": {
        "type": "ref",
        "value": "preferred"
    },
    "_wrapping_": 2,
    "android": {
        "textStyle": {
            "letterSpacing": 0,
            "strikeThrough": false
        }
    },
    "canUpdateUI": true,
    "containerweight": 100,
    "contentalignment": 4,
    "id": "Label0bef25b8a7bd044",
    "info": null,
    "ipad": {
        "psp": {
            "wrapping": 2
        }
    },
    "iphone": {
        "psp": {
            "wrapping": 2
        }
    },
    "iscustomlayout": false,
    "isvisible": true,
    "kuid": "c73db8a2fd604030a5e612ee6846a08b",
    "name": "kony.ui.Label",
    "parent": "FlexContainer0i97a1a13eb2345",
    "pf": "loginpage",
    "responsiveData": {
        "b1": {
            "contentAlignment": 5,
            "height": {
                "type": "string",
                "value": "40dp"
            },
            "skin": "sf033663a4ba4eb2a6ca467174f60514",
            "text": "Syed",
            "width": {
                "type": "string",
                "value": "100%"
            }
        },
        "b2": {
            "contentAlignment": 5,
            "height": {
                "type": "string",
                "value": "100%"
            },
            "skin": "sb39ed6e067740a7971b881552b0205e",
            "text": "Syed",
            "width": {
                "type": "string",
                "value": "100%"
            }
        },
        "b3": {
            "contentAlignment": 5,
            "height": {
                "type": "string",
                "value": "100%"
            },
            "skin": "sc78a796c93e426ea0ebd8bc2267d8e8",
            "text": "Syed",
            "width": {
                "type": "string",
                "value": "100%"
            }
        }
    },
    "retaincontentalignment": false,
    "retainflexpositionproperties": false,
    "tooltip": "",
    "wType": "Label"
}