{
    "DNDConfig": null,
    "_height_": {
        "type": "string",
        "value": "100%"
    },
    "_left_": {
        "type": "string",
        "value": "0dp"
    },
    "_margin_": [
        0,
        0,
        0,
        0
    ],
    "_orientation_": 6,
    "_padding_": [
        0,
        0,
        0,
        0
    ],
    "_percent_": true,
    "_right_": {
        "type": "number",
        "value": ""
    },
    "_skin_": "s7f1ed28662844b1b42c4d5179140464",
    "_top_": {
        "type": "string",
        "value": "0dp"
    },
    "_width_": {
        "type": "string",
        "value": "100%"
    },
    "allboxes": [],
    "allowhorizontalbounce": false,
    "allowverticalbounce": true,
    "bounces": true,
    "canUpdateUI": true,
    "centerx": {
        "type": "string",
        "value": "50%"
    },
    "centery": {
        "type": "string",
        "value": "50%"
    },
    "children": [
        "forspace",
        "centerwrapper",
        "forspace2",
        "forspacevertical",
        "FlexContainer0i2c98ee99aa14c"
    ],
    "clipbounds": true,
    "containerweight": 100,
    "decelerat": false,
    "desktopweb": {
        "render": true
    },
    "dragg": false,
    "enablescrolling": true,
    "horizontalscrollindicator": true,
    "id": "mainwrapper",
    "info": null,
    "iscustomlayout": false,
    "isvisible": true,
    "kiosk": {
        "render": false
    },
    "kuid": "b477dc1163e44da081608fb82f46195b",
    "layouttype": 5,
    "name": "kony.ui.FlexScrollContainer",
    "pagingenabled": false,
    "parent": "loginpage",
    "pf": "loginpage",
    "responsiveData": {
        "b1": {
            "height": {
                "type": "ref",
                "value": "preferred"
            }
        },
        "b2": {
            "centerX": {
                "type": "string",
                "value": "50.00%"
            },
            "centerY": {
                "type": "string",
                "value": "50.00%"
            },
            "height": {
                "type": "ref",
                "value": "preferred"
            },
            "right": {
                "type": "string",
                "value": ""
            },
            "top": {
                "type": "string",
                "value": "0dp"
            }
        },
        "b3": {
            "height": {
                "type": "ref",
                "value": "preferred"
            }
        }
    },
    "retaincontentalignment": false,
    "retainflexpositionproperties": false,
    "retainflowhorizontalalignment": false,
    "scrolldirection": 2,
    "snapgridsize": 10,
    "snaptogrid": true,
    "track": false,
    "verticalscrollindicator": true,
    "wType": "FlexScrollContainer",
    "widgetalignment": 1
}