{
    "@class": "com.kony.gen.viz.model.component.KVizRichText",
    "DNDConfig": null,
    "_height_": {
        "type": "ref",
        "value": "preferred"
    },
    "_left_": {
        "type": "string",
        "value": "10%"
    },
    "_margin_": [
        0,
        0,
        0,
        0
    ],
    "_padding_": [
        0,
        0,
        0,
        0
    ],
    "_skin_": "sb92770e24c14f6198fbd3e4a78328e9",
    "_text_": "<a style=\"color:#646b7a;font-size:15px;\" href=\"\">Sign Up </a><a style=\"color:#646b7a;font-size:15px;\" href=\"\">Log In </a><a style=\"color:#646b7a;font-size:15px;\" href=\"\">Messenger </a><a style=\"color:#646b7a;font-size:15px;\" href=\"\">Facebook Lite </a><a style=\"color:#646b7a;font-size:15px;\" href=\"\">Watch </a><a style=\"color:#646b7a;font-size:15px;\" href=\"\">Places </a><a style=\"color:#646b7a;font-size:15px;\" href=\"\">Games </a><a style=\"color:#646b7a;font-size:15px;\" href=\"\">Market Place </a><a style=\"color:#646b7a;font-size:15px;\" href=\"\">Facebook Pay </a><a style=\"color:#646b7a;font-size:15px;\" href=\"\">Jobs </a><a style=\"color:#646b7a;font-size:15px;\" href=\"\">Oculus </a><a style=\"color:#646b7a;font-size:15px;\" href=\"\">Portal </a><a style=\"color:#646b7a;font-size:15px;\" href=\"\">Instagram </a><a style=\"color:#646b7a;font-size:15px;\" href=\"\">Bullitin </a><a style=\"color:#646b7a;font-size:15px;\" href=\"\">Local </a><a style=\"color:#646b7a;font-size:15px;\" href=\"\">Fundraisers </a><a style=\"color:#646b7a;font-size:15px;\" href=\"\">Services </a><a style=\"color:#646b7a;font-size:15px;\" href=\"\">Voting Information Center </a><a style=\"color:#646b7a;font-size:15px;\" href=\"\">Groups </a><a style=\"color:#646b7a;font-size:15px;\" href=\"\">About </a><a style=\"color:#646b7a;font-size:15px;\" href=\"\">Create ad </a><a style=\"color:#646b7a;font-size:15px;\" href=\"\">Create Page </a><a style=\"color:#646b7a;font-size:15px;\" href=\"\">Developers </a><a style=\"color:#646b7a;font-size:15px;\" href=\"\">Careers </a><a style=\"color:#646b7a;font-size:15px;\" href=\"\">Privacy </a><a style=\"color:#646b7a;font-size:15px;\" href=\"\">Cookies </a><a style=\"color:#646b7a;font-size:15px;\" href=\"\">Ad Choices </a><a style=\"color:#646b7a;font-size:15px;\" href=\"\">Terms </a><a style=\"color:#646b7a;font-size:15px;\" href=\"\">Help</a>\n",
    "_top_": {
        "type": "string",
        "value": "6dp"
    },
    "_width_": {
        "type": "string",
        "value": "80%"
    },
    "_wrapping_": 2,
    "canUpdateUI": true,
    "containerweight": 100,
    "contentalignment": 4,
    "id": "RichText0i0ecb5e53f2241",
    "info": null,
    "iscustomlayout": false,
    "isvisible": true,
    "kuid": "d57865054ef742d0a57b05ab0b184459",
    "linkskin": "s05fd14b94424e71b77c969de3b90038",
    "name": "kony.ui.RichText",
    "paddinginpixel": false,
    "parent": "FlexContainer0i2c98ee99aa14c",
    "pf": "loginpage",
    "responsiveData": {
        "b3": {
            "text": "<a style=\"color:#646b7a;font-size:15px;\" href=\"\">Sign Up </a><a style=\"color:#646b7a;font-size:15px;\" href=\"\">Log In </a><a style=\"color:#646b7a;font-size:15px;\" href=\"\">Messenger </a><a style=\"color:#646b7a;font-size:15px;\" href=\"\">Facebook Lite </a><a style=\"color:#646b7a;font-size:15px;\" href=\"\">Watch </a><a style=\"color:#646b7a;font-size:15px;\" href=\"\">Places </a><a style=\"color:#646b7a;font-size:15px;\" href=\"\">Games </a><a style=\"color:#646b7a;font-size:15px;\" href=\"\">Market Place </a><a style=\"color:#646b7a;font-size:15px;\" href=\"\">Facebook Pay </a><a style=\"color:#646b7a;font-size:15px;\" href=\"\">Jobs </a><a style=\"color:#646b7a;font-size:15px;\" href=\"\">Oculus </a><a style=\"color:#646b7a;font-size:15px;\" href=\"\">Portal </a><a style=\"color:#646b7a;font-size:15px;\" href=\"\">Instagram </a><a style=\"color:#646b7a;font-size:15px;\" href=\"\">Bullitin </a><a style=\"color:#646b7a;font-size:15px;\" href=\"\">Local </a><a style=\"color:#646b7a;font-size:15px;\" href=\"\">Fundraisers </a><a style=\"color:#646b7a;font-size:15px;\" href=\"\">Services </a><a style=\"color:#646b7a;font-size:15px;\" href=\"\">Voting Information Center </a><a style=\"color:#646b7a;font-size:15px;\" href=\"\">Groups </a><a style=\"color:#646b7a;font-size:15px;\" href=\"\">About </a><a style=\"color:#646b7a;font-size:15px;\" href=\"\">Create ad </a><a style=\"color:#646b7a;font-size:15px;\" href=\"\">Create Page </a><a style=\"color:#646b7a;font-size:15px;\" href=\"\">Developers </a><a style=\"color:#646b7a;font-size:15px;\" href=\"\">Careers </a><a style=\"color:#646b7a;font-size:15px;\" href=\"\">Privacy </a><a style=\"color:#646b7a;font-size:15px;\" href=\"\">Cookies </a><a style=\"color:#646b7a;font-size:15px;\" href=\"\">Ad Choices </a><a style=\"color:#646b7a;font-size:15px;\" href=\"\">Terms </a><a style=\"color:#646b7a;font-size:15px;\" href=\"\">Help</a>\n",
            "top": {
                "type": "string",
                "value": "0dp"
            }
        }
    },
    "retaincontentalignment": false,
    "retainflexpositionproperties": false,
    "wType": "RichText",
    "widgetalignment": 5
}