{
    "DNDConfig": null,
    "_height_": {
        "type": "number",
        "value": "430"
    },
    "_left_": {
        "type": "string",
        "value": "50%"
    },
    "_margin_": [
        0,
        0,
        0,
        0
    ],
    "_orientation_": 6,
    "_padding_": [
        0,
        0,
        0,
        0
    ],
    "_percent_": true,
    "_skin_": "s8ec60bc9ccf42679cb7eeccd26bb139",
    "_top_": {
        "type": "string",
        "value": "15%"
    },
    "_width_": {
        "type": "string",
        "value": "50%"
    },
    "allboxes": [],
    "canUpdateUI": true,
    "children": [
        "loginbox",
        "RichText0af0e7d699f0e48"
    ],
    "clipbounds": true,
    "containerweight": 100,
    "enablescrolling": true,
    "id": "rightcol",
    "info": null,
    "iscustomlayout": false,
    "isvisible": false,
    "kuid": "hd486a06990547f581f5c6130ccb435f",
    "layouttype": 4,
    "name": "kony.ui.FlexContainer",
    "parent": "centerwrapper",
    "pf": "loginpage",
    "responsiveData": {
        "b1": {
            "isVisible": true,
            "top": {
                "type": "string",
                "value": "26%"
            },
            "width": {
                "type": "string",
                "value": "50%"
            }
        },
        "b2": {
            "height": {
                "type": "number",
                "value": "420"
            },
            "isVisible": true,
            "left": {
                "type": "string",
                "value": "15%"
            },
            "top": {
                "type": "string",
                "value": "10dp"
            },
            "width": {
                "type": "string",
                "value": "70%"
            }
        },
        "b3": {
            "height": {
                "type": "number",
                "value": "480"
            },
            "left": {
                "type": "string",
                "value": ""
            },
            "skin": "sf40e52c0e494983b0a8565b29d6d792",
            "top": {
                "type": "number",
                "value": "25"
            },
            "width": {
                "type": "string",
                "value": "100%"
            }
        }
    },
    "retaincontentalignment": false,
    "retainflexpositionproperties": false,
    "retainflowhorizontalalignment": false,
    "snapgridsize": 10,
    "snaptogrid": true,
    "wType": "FlexContainer",
    "widgetalignment": 1
}