{
  "android": {
    "background_color": "ffffffff",
    "bg_type": "one",
    "font_name": "default",
    "isForked": true
  },
  "androidwearos": {
    "background_color": "ffffffff",
    "bg_type": "one",
    "font_name": "default",
    "isForked": true
  },
  "background_color": "00000000",
  "bg_type": "one",
  "border_color": "000000ff",
  "border_style": "plain",
  "border_type": 0,
  "border_width": 0,
  "desktopweb": {
    "background_color": "ffffffff",
    "bg_type": "one",
    "border_type": 0,
    "bottom_left_border_color": "000000ff",
    "bottom_left_border_style": "plain",
    "bottom_left_border_width": 0,
    "bottom_right_border_color": "000000ff",
    "bottom_right_border_style": "plain",
    "bottom_right_border_width": 0,
    "customCSS": "padding: 5px;\n",
    "font_name": "Helvetica",
    "isCustomCSSEnabled": false,
    "isForked": true,
    "shadow": {
      "br": 10,
      "color": "000000ad",
      "inner": false,
      "nm": 0,
      "x": 0,
      "y": 0
    },
    "top_left_border_color": "00000000",
    "top_left_border_style": "plain",
    "top_left_border_width": "0",
    "top_right_border_color": "000000ff",
    "top_right_border_style": "plain",
    "top_right_border_width": 0
  },
  "ipad": {
    "background_color": "ffffffff",
    "bg_type": "one",
    "font_name": "System",
    "isForked": true,
    "shadow": {
      "br": 10,
      "color": "000000ad",
      "inner": false,
      "nm": 0,
      "x": 0,
      "y": 0
    }
  },
  "iphone": {
    "background_color": "ffffffff",
    "bg_type": "one",
    "font_name": "System",
    "isForked": true,
    "shadow": {
      "br": 10,
      "color": "000000ad",
      "inner": false,
      "nm": 0,
      "x": 0,
      "y": 0
    }
  },
  "isDefaultSkin": false,
  "kiosk": {
    "background_color": "ffffffff",
    "bg_type": "one",
    "font_name": "None",
    "isForked": true
  },
  "kuid": "s12dd02ef0094b8f8b26668a3dcd4071",
  "spaan": {
    "background_color": "ffffffff",
    "bg_type": "one",
    "border_type": 0,
    "bottom_left_border_color": "000000ff",
    "bottom_left_border_style": "plain",
    "bottom_left_border_width": 0,
    "bottom_right_border_color": "000000ff",
    "bottom_right_border_style": "plain",
    "bottom_right_border_width": 0,
    "customCSS": "padding: 5px;\n",
    "font_name": "Helvetica",
    "isCustomCSSEnabled": false,
    "isForked": true,
    "shadow": {
      "br": 10,
      "color": "000000ad",
      "inner": false,
      "nm": 0,
      "x": 0,
      "y": 0
    },
    "top_left_border_color": "00000000",
    "top_left_border_style": "plain",
    "top_left_border_width": "0",
    "top_right_border_color": "000000ff",
    "top_right_border_style": "plain",
    "top_right_border_width": 0
  },
  "spaandroidtablet": {
    "background_color": "ffffffff",
    "bg_type": "one",
    "border_type": 0,
    "bottom_left_border_color": "000000ff",
    "bottom_left_border_style": "plain",
    "bottom_left_border_width": 0,
    "bottom_right_border_color": "000000ff",
    "bottom_right_border_style": "plain",
    "bottom_right_border_width": 0,
    "customCSS": "padding: 5px;\n",
    "font_name": "Helvetica",
    "isCustomCSSEnabled": false,
    "isForked": true,
    "shadow": {
      "br": 10,
      "color": "000000ad",
      "inner": false,
      "nm": 0,
      "x": 0,
      "y": 0
    },
    "top_left_border_color": "00000000",
    "top_left_border_style": "plain",
    "top_left_border_width": "0",
    "top_right_border_color": "000000ff",
    "top_right_border_style": "plain",
    "top_right_border_width": 0
  },
  "spaip": {
    "background_color": "ffffffff",
    "bg_type": "one",
    "border_type": 0,
    "bottom_left_border_color": "000000ff",
    "bottom_left_border_style": "plain",
    "bottom_left_border_width": 0,
    "bottom_right_border_color": "000000ff",
    "bottom_right_border_style": "plain",
    "bottom_right_border_width": 0,
    "customCSS": "padding: 5px;\n",
    "font_name": "Helvetica",
    "isCustomCSSEnabled": false,
    "isForked": true,
    "shadow": {
      "br": 10,
      "color": "000000ad",
      "inner": false,
      "nm": 0,
      "x": 0,
      "y": 0
    },
    "top_left_border_color": "00000000",
    "top_left_border_style": "plain",
    "top_left_border_width": "0",
    "top_right_border_color": "000000ff",
    "top_right_border_style": "plain",
    "top_right_border_width": 0
  },
  "spaipad": {
    "background_color": "ffffffff",
    "bg_type": "one",
    "border_type": 0,
    "bottom_left_border_color": "000000ff",
    "bottom_left_border_style": "plain",
    "bottom_left_border_width": 0,
    "bottom_right_border_color": "000000ff",
    "bottom_right_border_style": "plain",
    "bottom_right_border_width": 0,
    "customCSS": "padding: 5px;\n",
    "font_name": "Helvetica",
    "isCustomCSSEnabled": false,
    "isForked": true,
    "shadow": {
      "br": 10,
      "color": "000000ad",
      "inner": false,
      "nm": 0,
      "x": 0,
      "y": 0
    },
    "top_left_border_color": "00000000",
    "top_left_border_style": "plain",
    "top_left_border_width": "0",
    "top_right_border_color": "000000ff",
    "top_right_border_style": "plain",
    "top_right_border_width": 0
  },
  "spawindowstablet": {
    "background_color": "ffffffff",
    "bg_type": "one",
    "border_type": 0,
    "bottom_left_border_color": "000000ff",
    "bottom_left_border_style": "plain",
    "bottom_left_border_width": 0,
    "bottom_right_border_color": "000000ff",
    "bottom_right_border_style": "plain",
    "bottom_right_border_width": 0,
    "customCSS": "padding: 5px;\n",
    "font_name": "Helvetica",
    "isCustomCSSEnabled": false,
    "isForked": true,
    "shadow": {
      "br": 10,
      "color": "000000ad",
      "inner": false,
      "nm": 0,
      "x": 0,
      "y": 0
    },
    "top_left_border_color": "00000000",
    "top_left_border_style": "plain",
    "top_left_border_width": "0",
    "top_right_border_color": "000000ff",
    "top_right_border_style": "plain",
    "top_right_border_width": 0
  },
  "spawinphone8": {
    "background_color": "ffffffff",
    "bg_type": "one",
    "border_type": 0,
    "bottom_left_border_color": "000000ff",
    "bottom_left_border_style": "plain",
    "bottom_left_border_width": 0,
    "bottom_right_border_color": "000000ff",
    "bottom_right_border_style": "plain",
    "bottom_right_border_width": 0,
    "customCSS": "padding: 5px;\n",
    "font_name": "Helvetica",
    "isCustomCSSEnabled": false,
    "isForked": true,
    "shadow": {
      "br": 10,
      "color": "000000ad",
      "inner": false,
      "nm": 0,
      "x": 0,
      "y": 0
    },
    "top_left_border_color": "00000000",
    "top_left_border_style": "plain",
    "top_left_border_width": "0",
    "top_right_border_color": "000000ff",
    "top_right_border_style": "plain",
    "top_right_border_width": 0
  },
  "tabrcandroid": {
    "background_color": "ffffffff",
    "bg_type": "one",
    "font_name": "default",
    "isForked": true
  },
  "wType": "FlexContainer",
  "watchos": {
    "font_name": "System"
  },
  "windows8": {
    "background_color": "ffffffff",
    "bg_type": "one",
    "font_name": "None",
    "isForked": true
  },
  "winphone8": {
    "background_color": "ffffffff",
    "bg_type": "one",
    "font_name": "None",
    "isForked": true
  }
}