{
  "android": {
    "font_name": "default",
    "font_size": 53,
    "isForked": false
  },
  "androidwearos": {
    "font_name": "default",
    "font_size": 68,
    "isForked": false
  },
  "background_color": "00000000",
  "bg_type": "one",
  "border_color": "424242ff",
  "border_style": "plain",
  "border_type": 0,
  "border_width": 0,
  "desktopweb": {
    "font_name": "Helvetica",
    "font_size": 119,
    "isForked": false
  },
  "fontSizeInPx": true,
  "font_color": "cc261fff",
  "font_name": "iphoneSystem",
  "font_size": 119,
  "font_style": "normal",
  "font_weight": "400",
  "ipad": {
    "font_name": "System",
    "font_size": 68,
    "isForked": false
  },
  "iphone": {
    "font_name": "System",
    "font_size": 66,
    "isForked": false
  },
  "isDefaultSkin": false,
  "kiosk": {
    "font_name": "None",
    "font_size": 119,
    "isForked": false
  },
  "kuid": "sd4828e536f341e892b35656ceba9178",
  "spaan": {
    "font_name": "Helvetica",
    "font_size": 127,
    "isForked": false
  },
  "spaandroidtablet": {
    "font_name": "Helvetica",
    "font_size": 106,
    "isForked": false
  },
  "spaip": {
    "font_name": "Helvetica",
    "font_size": 122,
    "isForked": false
  },
  "spaipad": {
    "font_name": "Helvetica",
    "font_size": 112,
    "isForked": false
  },
  "spawindowstablet": {
    "font_name": "Helvetica",
    "font_size": 112,
    "isForked": false
  },
  "spawinphone8": {
    "font_name": "Helvetica",
    "font_size": 158,
    "isForked": false
  },
  "tabrcandroid": {
    "font_name": "default",
    "font_size": 113,
    "isForked": false
  },
  "wType": "Label",
  "watchos": {
    "font_name": "System",
    "font_size": 68,
    "isForked": false
  },
  "windows8": {
    "font_name": "None",
    "font_size": 46,
    "isForked": false
  },
  "winphone8": {
    "font_name": "None",
    "font_size": 63,
    "isForked": false
  }
}